C:\ProgramData\Workspace\NTM\conversion-eligibility-ms\conversion-eligibility-delegate\src\main\java\com\ntm\delegate\mappers\implementation\MapListConversionEligibleBansToConversionEligibilityResponse.java
C:\ProgramData\Workspace\NTM\conversion-eligibility-ms\conversion-eligibility-delegate\src\main\java\com\ntm\delegate\ConversionEligibleApiDelegateImpl.java
C:\ProgramData\Workspace\NTM\conversion-eligibility-ms\conversion-eligibility-delegate\src\main\java\com\ntm\delegate\mappers\interfaces\IMapListConversionEligibleBansToConversionEligibilityResponse.java
