C:\ProgramData\Workspace\NTM\conversion-eligibility-ms\conversion-eligibility-async\src\main\java\com\ntm\async\interfaces\CustomerUpdateLoadEventStream.java
C:\ProgramData\Workspace\NTM\conversion-eligibility-ms\conversion-eligibility-async\src\main\java\com\ntm\async\mappers\interfaces\IMapReleaseEventToReleaseEventDTO.java
C:\ProgramData\Workspace\NTM\conversion-eligibility-ms\conversion-eligibility-async\src\main\java\com\ntm\async\services\CustomerUpdateLoadEventAsyncServices.java
C:\ProgramData\Workspace\NTM\conversion-eligibility-ms\conversion-eligibility-async\src\main\java\com\ntm\async\mappers\implementation\MapReleaseEventToReleaseEventDTO.java
C:\ProgramData\Workspace\NTM\conversion-eligibility-ms\conversion-eligibility-async\src\main\java\com\ntm\async\config\StreamsConfig.java
